// Jest Snapshot v1, https://goo.gl/fbAQLP

exports[`CssLoader does not containt single quote for css file with it 1`] = `
"define(\\"codility-solution/test.css\\", [], function () {
            
        const linkElement = document.createElement('link');
          linkElement.setAttribute('rel', 'stylesheet');
          linkElement.setAttribute('type', 'text/css');
          linkElement.setAttribute(
            'href',
            'data:text/css;charset=UTF-8,%0A%20%20%20%20%20%20%20%20body%20%7B%0A%20%20%20%20%20%20%20%20%20%20font-family%3A%20%22Helvetica%20Nue%22%3B%0A%20%20%20%20%20%20%20%20%7D%0A%20%20%20%20%20%20',
            );
        const head = document.head || document.getElementsByTagName('head')[0];
        head.appendChild(linkElement);      
    
        });"
`;

exports[`CssLoader match snapshot for simple css file 1`] = `
"define(\\"codility-solution/index.css\\", [], function () {
            
        const linkElement = document.createElement('link');
          linkElement.setAttribute('rel', 'stylesheet');
          linkElement.setAttribute('type', 'text/css');
          linkElement.setAttribute(
            'href',
            'data:text/css;charset=UTF-8,%0A%20%20%20%20%20%20.counter-button%20%7B%0A%20%20%20%20%20%20%20%20padding%3A%20.3rem%20.8rem%3B%0A%20%20%20%20%20%20%20%20border%3A%201px%20solid%20grey%3B%0A%20%20%20%20%20%20%7D%0A%0A%20%20%20%20%20%20h2%20%7B%0A%20%20%20%20%20%20%20%20font-size%3A%20100px%3B%0A%20%20%20%20%20%20%7D%0A%20%20%20%20',
            );
        const head = document.head || document.getElementsByTagName('head')[0];
        head.appendChild(linkElement);      
    
        });"
`;
