// Jest Snapshot v1, https://goo.gl/fbAQLP

exports[`JsLoader match snapshot for js file 1`] = `
"define(\\"codility-solution/index.js\\",[\\"exports\\", \\"sorting-library\\"], function (_exports, _sortingLibrary) {
  \\"use strict\\";

  Object.defineProperty(_exports, \\"__esModule\\", {
    value: true
  });
  _exports.default = _exports.SOME_CONSTANT = void 0;
  _sortingLibrary = _interopRequireDefault(_sortingLibrary);

  function _interopRequireDefault(obj) { return obj && obj.__esModule ? obj : { default: obj }; }

  function _toConsumableArray(arr) { return _arrayWithoutHoles(arr) || _iterableToArray(arr) || _nonIterableSpread(); }

  function _nonIterableSpread() { throw new TypeError(\\"Invalid attempt to spread non-iterable instance\\"); }

  function _iterableToArray(iter) { if (Symbol.iterator in Object(iter) || Object.prototype.toString.call(iter) === \\"[object Arguments]\\") return Array.from(iter); }

  function _arrayWithoutHoles(arr) { if (Array.isArray(arr)) { for (var i = 0, arr2 = new Array(arr.length); i < arr.length; i++) { arr2[i] = arr[i]; } return arr2; } }

  function sortFiles(files) {
    return _toConsumableArray(files).sort();
  }

  var SOME_CONSTANT = 123;
  _exports.SOME_CONSTANT = SOME_CONSTANT;
  var _default = sortFiles;
  _exports.default = _default;
});"
`;
